<?xml version="1.0" encoding="utf-8"?>
<TestRecord xmlns:xsi="http://www.w3.org/2001/XMLSchema-instance" xmlns:xsd="http://www.w3.org/2001/XMLSchema">
  <Results>
    <UnitTestResult>
      <TestDate>2015-02-07T16:52:33</TestDate>
      <Passed>6</Passed>
      <Errors>0</Errors>
      <Failures>1</Failures>
      <Inconclusive>0</Inconclusive>
      <NotRunnable>0</NotRunnable>
      <Skipped>0</Skipped>
      <Ignored>0</Ignored>
      <Time />
      <Message>One or more child tests had errors</Message>
    </UnitTestResult>
    <UnitTestResult>
      <TestDate>2015-02-07T16:55:25</TestDate>
      <Passed>6</Passed>
      <Errors>0</Errors>
      <Failures>1</Failures>
      <Inconclusive>0</Inconclusive>
      <NotRunnable>0</NotRunnable>
      <Skipped>0</Skipped>
      <Ignored>0</Ignored>
      <Time />
      <Message>One or more child tests had errors</Message>
    </UnitTestResult>
    <UnitTestResult>
      <TestDate>2015-02-07T17:05:20</TestDate>
      <Passed>6</Passed>
      <Errors>0</Errors>
      <Failures>1</Failures>
      <Inconclusive>0</Inconclusive>
      <NotRunnable>0</NotRunnable>
      <Skipped>0</Skipped>
      <Ignored>0</Ignored>
      <Time />
      <Message>One or more child tests had errors</Message>
    </UnitTestResult>
    <UnitTestResult>
      <TestDate>2015-02-07T17:13:47</TestDate>
      <Passed>6</Passed>
      <Errors>0</Errors>
      <Failures>1</Failures>
      <Inconclusive>0</Inconclusive>
      <NotRunnable>0</NotRunnable>
      <Skipped>0</Skipped>
      <Ignored>0</Ignored>
      <Time />
      <Message>One or more child tests had errors</Message>
    </UnitTestResult>
    <UnitTestResult>
      <TestDate>2015-02-07T17:17:31</TestDate>
      <Passed>6</Passed>
      <Errors>0</Errors>
      <Failures>1</Failures>
      <Inconclusive>0</Inconclusive>
      <NotRunnable>0</NotRunnable>
      <Skipped>0</Skipped>
      <Ignored>0</Ignored>
      <Time />
      <Message>One or more child tests had errors</Message>
    </UnitTestResult>
    <UnitTestResult>
      <TestDate>2015-02-07T17:19:02</TestDate>
      <Passed>7</Passed>
      <Errors>0</Errors>
      <Failures>0</Failures>
      <Inconclusive>0</Inconclusive>
      <NotRunnable>0</NotRunnable>
      <Skipped>0</Skipped>
      <Ignored>0</Ignored>
      <Time />
      <Message>Test successful

Execution time: 0.08ms</Message>
    </UnitTestResult>
  </Results>
  <Tests>
    <TestRecord Name="OranUtils">
      <Results>
        <UnitTestResult>
          <TestDate>2015-02-07T16:52:33</TestDate>
          <Passed>6</Passed>
          <Errors>0</Errors>
          <Failures>1</Failures>
          <Inconclusive>0</Inconclusive>
          <NotRunnable>0</NotRunnable>
          <Skipped>0</Skipped>
          <Ignored>0</Ignored>
          <Time />
          <Message>One or more child tests had errors</Message>
        </UnitTestResult>
        <UnitTestResult>
          <TestDate>2015-02-07T16:55:25</TestDate>
          <Passed>6</Passed>
          <Errors>0</Errors>
          <Failures>1</Failures>
          <Inconclusive>0</Inconclusive>
          <NotRunnable>0</NotRunnable>
          <Skipped>0</Skipped>
          <Ignored>0</Ignored>
          <Time />
          <Message>One or more child tests had errors</Message>
        </UnitTestResult>
        <UnitTestResult>
          <TestDate>2015-02-07T17:05:20</TestDate>
          <Passed>6</Passed>
          <Errors>0</Errors>
          <Failures>1</Failures>
          <Inconclusive>0</Inconclusive>
          <NotRunnable>0</NotRunnable>
          <Skipped>0</Skipped>
          <Ignored>0</Ignored>
          <Time />
          <Message>One or more child tests had errors</Message>
        </UnitTestResult>
        <UnitTestResult>
          <TestDate>2015-02-07T17:13:47</TestDate>
          <Passed>6</Passed>
          <Errors>0</Errors>
          <Failures>1</Failures>
          <Inconclusive>0</Inconclusive>
          <NotRunnable>0</NotRunnable>
          <Skipped>0</Skipped>
          <Ignored>0</Ignored>
          <Time />
          <Message>One or more child tests had errors</Message>
        </UnitTestResult>
        <UnitTestResult>
          <TestDate>2015-02-07T17:17:31</TestDate>
          <Passed>6</Passed>
          <Errors>0</Errors>
          <Failures>1</Failures>
          <Inconclusive>0</Inconclusive>
          <NotRunnable>0</NotRunnable>
          <Skipped>0</Skipped>
          <Ignored>0</Ignored>
          <Time />
          <Message>One or more child tests had errors</Message>
        </UnitTestResult>
        <UnitTestResult>
          <TestDate>2015-02-07T17:19:02</TestDate>
          <Passed>7</Passed>
          <Errors>0</Errors>
          <Failures>0</Failures>
          <Inconclusive>0</Inconclusive>
          <NotRunnable>0</NotRunnable>
          <Skipped>0</Skipped>
          <Ignored>0</Ignored>
          <Time />
          <Message>Test successful

Execution time: 0.07ms</Message>
        </UnitTestResult>
      </Results>
      <Tests>
        <TestRecord Name="PriorityQueueTest">
          <Results>
            <UnitTestResult>
              <TestDate>2015-02-07T16:52:33</TestDate>
              <Passed>6</Passed>
              <Errors>0</Errors>
              <Failures>1</Failures>
              <Inconclusive>0</Inconclusive>
              <NotRunnable>0</NotRunnable>
              <Skipped>0</Skipped>
              <Ignored>0</Ignored>
              <Time />
              <Message>One or more child tests had errors</Message>
            </UnitTestResult>
            <UnitTestResult>
              <TestDate>2015-02-07T16:55:25</TestDate>
              <Passed>6</Passed>
              <Errors>0</Errors>
              <Failures>1</Failures>
              <Inconclusive>0</Inconclusive>
              <NotRunnable>0</NotRunnable>
              <Skipped>0</Skipped>
              <Ignored>0</Ignored>
              <Time />
              <Message>One or more child tests had errors</Message>
            </UnitTestResult>
            <UnitTestResult>
              <TestDate>2015-02-07T17:05:20</TestDate>
              <Passed>6</Passed>
              <Errors>0</Errors>
              <Failures>1</Failures>
              <Inconclusive>0</Inconclusive>
              <NotRunnable>0</NotRunnable>
              <Skipped>0</Skipped>
              <Ignored>0</Ignored>
              <Time />
              <Message>One or more child tests had errors</Message>
            </UnitTestResult>
            <UnitTestResult>
              <TestDate>2015-02-07T17:13:47</TestDate>
              <Passed>6</Passed>
              <Errors>0</Errors>
              <Failures>1</Failures>
              <Inconclusive>0</Inconclusive>
              <NotRunnable>0</NotRunnable>
              <Skipped>0</Skipped>
              <Ignored>0</Ignored>
              <Time />
              <Message>One or more child tests had errors</Message>
            </UnitTestResult>
            <UnitTestResult>
              <TestDate>2015-02-07T17:17:31</TestDate>
              <Passed>6</Passed>
              <Errors>0</Errors>
              <Failures>1</Failures>
              <Inconclusive>0</Inconclusive>
              <NotRunnable>0</NotRunnable>
              <Skipped>0</Skipped>
              <Ignored>0</Ignored>
              <Time />
              <Message>One or more child tests had errors</Message>
            </UnitTestResult>
            <UnitTestResult>
              <TestDate>2015-02-07T17:19:02</TestDate>
              <Passed>7</Passed>
              <Errors>0</Errors>
              <Failures>0</Failures>
              <Inconclusive>0</Inconclusive>
              <NotRunnable>0</NotRunnable>
              <Skipped>0</Skipped>
              <Ignored>0</Ignored>
              <Time />
              <Message>Test successful

Execution time: 0.06ms</Message>
            </UnitTestResult>
          </Results>
          <Tests>
            <TestRecord Name="GridTest">
              <Results>
                <UnitTestResult>
                  <TestDate>2015-02-07T16:52:33</TestDate>
                  <Passed>1</Passed>
                  <Errors>0</Errors>
                  <Failures>0</Failures>
                  <Inconclusive>0</Inconclusive>
                  <NotRunnable>0</NotRunnable>
                  <Skipped>0</Skipped>
                  <Ignored>0</Ignored>
                  <Time />
                  <Message>Test successful

Execution time: 0.02ms</Message>
                  <ConsoleOutput />
                  <ConsoleError />
                </UnitTestResult>
                <UnitTestResult>
                  <TestDate>2015-02-07T16:55:25</TestDate>
                  <Passed>1</Passed>
                  <Errors>0</Errors>
                  <Failures>0</Failures>
                  <Inconclusive>0</Inconclusive>
                  <NotRunnable>0</NotRunnable>
                  <Skipped>0</Skipped>
                  <Ignored>0</Ignored>
                  <Time />
                  <Message>Test successful

Execution time: 0.02ms</Message>
                  <ConsoleOutput />
                  <ConsoleError />
                </UnitTestResult>
                <UnitTestResult>
                  <TestDate>2015-02-07T17:05:20</TestDate>
                  <Passed>1</Passed>
                  <Errors>0</Errors>
                  <Failures>0</Failures>
                  <Inconclusive>0</Inconclusive>
                  <NotRunnable>0</NotRunnable>
                  <Skipped>0</Skipped>
                  <Ignored>0</Ignored>
                  <Time />
                  <Message>Test successful

Execution time: 0.02ms</Message>
                  <ConsoleOutput />
                  <ConsoleError />
                </UnitTestResult>
                <UnitTestResult>
                  <TestDate>2015-02-07T17:13:47</TestDate>
                  <Passed>1</Passed>
                  <Errors>0</Errors>
                  <Failures>0</Failures>
                  <Inconclusive>0</Inconclusive>
                  <NotRunnable>0</NotRunnable>
                  <Skipped>0</Skipped>
                  <Ignored>0</Ignored>
                  <Time />
                  <Message>Test successful

Execution time: 0.02ms</Message>
                  <ConsoleOutput />
                  <ConsoleError />
                </UnitTestResult>
                <UnitTestResult>
                  <TestDate>2015-02-07T17:17:31</TestDate>
                  <Passed>1</Passed>
                  <Errors>0</Errors>
                  <Failures>0</Failures>
                  <Inconclusive>0</Inconclusive>
                  <NotRunnable>0</NotRunnable>
                  <Skipped>0</Skipped>
                  <Ignored>0</Ignored>
                  <Time />
                  <Message>Test successful

Execution time: 0.02ms</Message>
                  <ConsoleOutput />
                  <ConsoleError />
                </UnitTestResult>
                <UnitTestResult>
                  <TestDate>2015-02-07T17:19:02</TestDate>
                  <Passed>1</Passed>
                  <Errors>0</Errors>
                  <Failures>0</Failures>
                  <Inconclusive>0</Inconclusive>
                  <NotRunnable>0</NotRunnable>
                  <Skipped>0</Skipped>
                  <Ignored>0</Ignored>
                  <Time />
                  <Message>Test successful

Execution time: 0.02ms</Message>
                  <ConsoleOutput />
                  <ConsoleError />
                </UnitTestResult>
              </Results>
              <Tests />
            </TestRecord>
            <TestRecord Name="TestAdd">
              <Results>
                <UnitTestResult>
                  <TestDate>2015-02-07T16:52:33</TestDate>
                  <Passed>1</Passed>
                  <Errors>0</Errors>
                  <Failures>0</Failures>
                  <Inconclusive>0</Inconclusive>
                  <NotRunnable>0</NotRunnable>
                  <Skipped>0</Skipped>
                  <Ignored>0</Ignored>
                  <Time />
                  <Message>Test successful

Execution time: 0.01ms</Message>
                  <ConsoleOutput />
                  <ConsoleError />
                </UnitTestResult>
                <UnitTestResult>
                  <TestDate>2015-02-07T16:55:25</TestDate>
                  <Passed>1</Passed>
                  <Errors>0</Errors>
                  <Failures>0</Failures>
                  <Inconclusive>0</Inconclusive>
                  <NotRunnable>0</NotRunnable>
                  <Skipped>0</Skipped>
                  <Ignored>0</Ignored>
                  <Time />
                  <Message>Test successful

Execution time: 0.01ms</Message>
                  <ConsoleOutput />
                  <ConsoleError />
                </UnitTestResult>
                <UnitTestResult>
                  <TestDate>2015-02-07T17:05:20</TestDate>
                  <Passed>1</Passed>
                  <Errors>0</Errors>
                  <Failures>0</Failures>
                  <Inconclusive>0</Inconclusive>
                  <NotRunnable>0</NotRunnable>
                  <Skipped>0</Skipped>
                  <Ignored>0</Ignored>
                  <Time />
                  <Message>Test successful

Execution time: 0.01ms</Message>
                  <ConsoleOutput />
                  <ConsoleError />
                </UnitTestResult>
                <UnitTestResult>
                  <TestDate>2015-02-07T17:13:47</TestDate>
                  <Passed>1</Passed>
                  <Errors>0</Errors>
                  <Failures>0</Failures>
                  <Inconclusive>0</Inconclusive>
                  <NotRunnable>0</NotRunnable>
                  <Skipped>0</Skipped>
                  <Ignored>0</Ignored>
                  <Time />
                  <Message>Test successful

Execution time: 0.01ms</Message>
                  <ConsoleOutput />
                  <ConsoleError />
                </UnitTestResult>
                <UnitTestResult>
                  <TestDate>2015-02-07T17:17:31</TestDate>
                  <Passed>1</Passed>
                  <Errors>0</Errors>
                  <Failures>0</Failures>
                  <Inconclusive>0</Inconclusive>
                  <NotRunnable>0</NotRunnable>
                  <Skipped>0</Skipped>
                  <Ignored>0</Ignored>
                  <Time />
                  <Message>Test successful

Execution time: 0.01ms</Message>
                  <ConsoleOutput />
                  <ConsoleError />
                </UnitTestResult>
                <UnitTestResult>
                  <TestDate>2015-02-07T17:19:02</TestDate>
                  <Passed>1</Passed>
                  <Errors>0</Errors>
                  <Failures>0</Failures>
                  <Inconclusive>0</Inconclusive>
                  <NotRunnable>0</NotRunnable>
                  <Skipped>0</Skipped>
                  <Ignored>0</Ignored>
                  <Time />
                  <Message>Test successful

Execution time: 0.01ms</Message>
                  <ConsoleOutput />
                  <ConsoleError />
                </UnitTestResult>
              </Results>
              <Tests />
            </TestRecord>
            <TestRecord Name="TestContains">
              <Results>
                <UnitTestResult>
                  <TestDate>2015-02-07T16:52:33</TestDate>
                  <Passed>1</Passed>
                  <Errors>0</Errors>
                  <Failures>0</Failures>
                  <Inconclusive>0</Inconclusive>
                  <NotRunnable>0</NotRunnable>
                  <Skipped>0</Skipped>
                  <Ignored>0</Ignored>
                  <Time />
                  <Message>Test successful

Execution time: 0.00ms</Message>
                  <ConsoleOutput />
                  <ConsoleError />
                </UnitTestResult>
                <UnitTestResult>
                  <TestDate>2015-02-07T16:55:25</TestDate>
                  <Passed>1</Passed>
                  <Errors>0</Errors>
                  <Failures>0</Failures>
                  <Inconclusive>0</Inconclusive>
                  <NotRunnable>0</NotRunnable>
                  <Skipped>0</Skipped>
                  <Ignored>0</Ignored>
                  <Time />
                  <Message>Test successful

Execution time: 0.00ms</Message>
                  <ConsoleOutput />
                  <ConsoleError />
                </UnitTestResult>
                <UnitTestResult>
                  <TestDate>2015-02-07T17:05:20</TestDate>
                  <Passed>1</Passed>
                  <Errors>0</Errors>
                  <Failures>0</Failures>
                  <Inconclusive>0</Inconclusive>
                  <NotRunnable>0</NotRunnable>
                  <Skipped>0</Skipped>
                  <Ignored>0</Ignored>
                  <Time />
                  <Message>Test successful

Execution time: 0.00ms</Message>
                  <ConsoleOutput />
                  <ConsoleError />
                </UnitTestResult>
                <UnitTestResult>
                  <TestDate>2015-02-07T17:13:47</TestDate>
                  <Passed>1</Passed>
                  <Errors>0</Errors>
                  <Failures>0</Failures>
                  <Inconclusive>0</Inconclusive>
                  <NotRunnable>0</NotRunnable>
                  <Skipped>0</Skipped>
                  <Ignored>0</Ignored>
                  <Time />
                  <Message>Test successful

Execution time: 0.00ms</Message>
                  <ConsoleOutput />
                  <ConsoleError />
                </UnitTestResult>
                <UnitTestResult>
                  <TestDate>2015-02-07T17:17:31</TestDate>
                  <Passed>1</Passed>
                  <Errors>0</Errors>
                  <Failures>0</Failures>
                  <Inconclusive>0</Inconclusive>
                  <NotRunnable>0</NotRunnable>
                  <Skipped>0</Skipped>
                  <Ignored>0</Ignored>
                  <Time />
                  <Message>Test successful

Execution time: 0.00ms</Message>
                  <ConsoleOutput />
                  <ConsoleError />
                </UnitTestResult>
                <UnitTestResult>
                  <TestDate>2015-02-07T17:19:02</TestDate>
                  <Passed>1</Passed>
                  <Errors>0</Errors>
                  <Failures>0</Failures>
                  <Inconclusive>0</Inconclusive>
                  <NotRunnable>0</NotRunnable>
                  <Skipped>0</Skipped>
                  <Ignored>0</Ignored>
                  <Time />
                  <Message>Test successful

Execution time: 0.00ms</Message>
                  <ConsoleOutput />
                  <ConsoleError />
                </UnitTestResult>
              </Results>
              <Tests />
            </TestRecord>
            <TestRecord Name="TestDownHeap">
              <Results>
                <UnitTestResult>
                  <TestDate>2015-02-07T16:52:33</TestDate>
                  <Passed>0</Passed>
                  <Errors>0</Errors>
                  <Failures>1</Failures>
                  <Inconclusive>0</Inconclusive>
                  <NotRunnable>0</NotRunnable>
                  <Skipped>0</Skipped>
                  <Ignored>0</Ignored>
                  <Time />
                  <Message>  Expected string length 7 but was 3. Strings differ at index 0.
  Expected: "Quattro"
  But was:  "Due"
  -----------^
</Message>
                  <StackTrace>   at NUnit.Framework.Assert.That(Object actual, IResolveConstraint expression, String message, Object[] args)
   at OranUtils.PriorityQueueTest.TestDownHeap() in e:\Unity\Synergy\Assets\Scripts\Oran Utils\PriorityQueueTest.cs:line 88</StackTrace>
                  <ConsoleOutput />
                  <ConsoleError />
                </UnitTestResult>
                <UnitTestResult>
                  <TestDate>2015-02-07T16:55:25</TestDate>
                  <Passed>0</Passed>
                  <Errors>0</Errors>
                  <Failures>1</Failures>
                  <Inconclusive>0</Inconclusive>
                  <NotRunnable>0</NotRunnable>
                  <Skipped>0</Skipped>
                  <Ignored>0</Ignored>
                  <Time />
                  <Message>  Expected string length 7 but was 3. Strings differ at index 0.
  Expected: "Quattro"
  But was:  "Tre"
  -----------^
</Message>
                  <StackTrace>   at NUnit.Framework.Assert.That(Object actual, IResolveConstraint expression, String message, Object[] args)
   at OranUtils.PriorityQueueTest.TestDownHeap() in e:\Unity\Synergy\Assets\Scripts\Oran Utils\PriorityQueueTest.cs:line 88</StackTrace>
                  <ConsoleOutput />
                  <ConsoleError />
                </UnitTestResult>
                <UnitTestResult>
                  <TestDate>2015-02-07T17:05:20</TestDate>
                  <Passed>0</Passed>
                  <Errors>0</Errors>
                  <Failures>1</Failures>
                  <Inconclusive>0</Inconclusive>
                  <NotRunnable>0</NotRunnable>
                  <Skipped>0</Skipped>
                  <Ignored>0</Ignored>
                  <Time />
                  <Message>  Expected string length 7 but was 3. Strings differ at index 0.
  Expected: "Quattro"
  But was:  "Tre"
  -----------^
</Message>
                  <StackTrace>   at NUnit.Framework.Assert.That(Object actual, IResolveConstraint expression, String message, Object[] args)
   at OranUtils.PriorityQueueTest.TestDownHeap() in e:\Unity\Synergy\Assets\Scripts\Oran Utils\PriorityQueueTest.cs:line 88</StackTrace>
                  <ConsoleOutput />
                  <ConsoleError />
                </UnitTestResult>
                <UnitTestResult>
                  <TestDate>2015-02-07T17:13:47</TestDate>
                  <Passed>0</Passed>
                  <Errors>0</Errors>
                  <Failures>1</Failures>
                  <Inconclusive>0</Inconclusive>
                  <NotRunnable>0</NotRunnable>
                  <Skipped>0</Skipped>
                  <Ignored>0</Ignored>
                  <Time />
                  <Message>  Expected string length 7 but was 3. Strings differ at index 0.
  Expected: "Quattro"
  But was:  "Tre"
  -----------^
</Message>
                  <StackTrace>   at NUnit.Framework.Assert.That(Object actual, IResolveConstraint expression, String message, Object[] args)
   at OranUtils.PriorityQueueTest.TestDownHeap() in e:\Unity\Synergy\Assets\Scripts\Oran Utils\PriorityQueueTest.cs:line 94</StackTrace>
                  <ConsoleOutput>Uno 
Due Uno 
Tre Uno Due 
Quattro Tre Due Uno 
Cinque Quattro Due Uno Tre 
Tre Quattro Due Uno 
</ConsoleOutput>
                  <ConsoleError />
                </UnitTestResult>
                <UnitTestResult>
                  <TestDate>2015-02-07T17:17:31</TestDate>
                  <Passed>0</Passed>
                  <Errors>0</Errors>
                  <Failures>1</Failures>
                  <Inconclusive>0</Inconclusive>
                  <NotRunnable>0</NotRunnable>
                  <Skipped>0</Skipped>
                  <Ignored>0</Ignored>
                  <Time />
                  <Message>  Expected string length 7 but was 3. Strings differ at index 0.
  Expected: "Quattro"
  But was:  "Tre"
  -----------^
</Message>
                  <StackTrace>   at NUnit.Framework.Assert.That(Object actual, IResolveConstraint expression, String message, Object[] args)
   at OranUtils.PriorityQueueTest.TestDownHeap() in e:\Unity\Synergy\Assets\Scripts\Oran Utils\PriorityQueueTest.cs:line 94</StackTrace>
                  <ConsoleOutput>Uno 
Due Uno 
Tre Uno Due 
Quattro Tre Due Uno 
Cinque Quattro Due Uno Tre 
node: OranUtils.PriorityQueueNode`1[System.String] biggerchild: OranUtils.PriorityQueueNode`1[System.String]
node.Priority: 3 biggerChild.Priority: 4
Tre Quattro Due Uno 
node: OranUtils.PriorityQueueNode`1[System.String] biggerchild: OranUtils.PriorityQueueNode`1[System.String]
node.Priority: 1 biggerChild.Priority: 4
</ConsoleOutput>
                  <ConsoleError />
                </UnitTestResult>
                <UnitTestResult>
                  <TestDate>2015-02-07T17:19:02</TestDate>
                  <Passed>1</Passed>
                  <Errors>0</Errors>
                  <Failures>0</Failures>
                  <Inconclusive>0</Inconclusive>
                  <NotRunnable>0</NotRunnable>
                  <Skipped>0</Skipped>
                  <Ignored>0</Ignored>
                  <Time />
                  <Message>Test successful

Execution time: 0.00ms</Message>
                  <ConsoleOutput>Uno 
Due Uno 
Tre Uno Due 
Quattro Tre Due Uno 
Cinque Quattro Due Uno Tre 
Quattro Tre Due Uno 
Tre Uno Due 
Due Uno 
Uno 

</ConsoleOutput>
                  <ConsoleError />
                </UnitTestResult>
              </Results>
              <Tests />
            </TestRecord>
            <TestRecord Name="TestPop">
              <Results>
                <UnitTestResult>
                  <TestDate>2015-02-07T16:52:33</TestDate>
                  <Passed>1</Passed>
                  <Errors>0</Errors>
                  <Failures>0</Failures>
                  <Inconclusive>0</Inconclusive>
                  <NotRunnable>0</NotRunnable>
                  <Skipped>0</Skipped>
                  <Ignored>0</Ignored>
                  <Time />
                  <Message>Test successful

Execution time: 0.00ms</Message>
                  <ConsoleOutput />
                  <ConsoleError />
                </UnitTestResult>
                <UnitTestResult>
                  <TestDate>2015-02-07T16:55:25</TestDate>
                  <Passed>1</Passed>
                  <Errors>0</Errors>
                  <Failures>0</Failures>
                  <Inconclusive>0</Inconclusive>
                  <NotRunnable>0</NotRunnable>
                  <Skipped>0</Skipped>
                  <Ignored>0</Ignored>
                  <Time />
                  <Message>Test successful

Execution time: 0.00ms</Message>
                  <ConsoleOutput />
                  <ConsoleError />
                </UnitTestResult>
                <UnitTestResult>
                  <TestDate>2015-02-07T17:05:20</TestDate>
                  <Passed>1</Passed>
                  <Errors>0</Errors>
                  <Failures>0</Failures>
                  <Inconclusive>0</Inconclusive>
                  <NotRunnable>0</NotRunnable>
                  <Skipped>0</Skipped>
                  <Ignored>0</Ignored>
                  <Time />
                  <Message>Test successful

Execution time: 0.00ms</Message>
                  <ConsoleOutput />
                  <ConsoleError />
                </UnitTestResult>
                <UnitTestResult>
                  <TestDate>2015-02-07T17:13:47</TestDate>
                  <Passed>1</Passed>
                  <Errors>0</Errors>
                  <Failures>0</Failures>
                  <Inconclusive>0</Inconclusive>
                  <NotRunnable>0</NotRunnable>
                  <Skipped>0</Skipped>
                  <Ignored>0</Ignored>
                  <Time />
                  <Message>Test successful

Execution time: 0.00ms</Message>
                  <ConsoleOutput />
                  <ConsoleError />
                </UnitTestResult>
                <UnitTestResult>
                  <TestDate>2015-02-07T17:17:31</TestDate>
                  <Passed>1</Passed>
                  <Errors>0</Errors>
                  <Failures>0</Failures>
                  <Inconclusive>0</Inconclusive>
                  <NotRunnable>0</NotRunnable>
                  <Skipped>0</Skipped>
                  <Ignored>0</Ignored>
                  <Time />
                  <Message>Test successful

Execution time: 0.00ms</Message>
                  <ConsoleOutput />
                  <ConsoleError />
                </UnitTestResult>
                <UnitTestResult>
                  <TestDate>2015-02-07T17:19:02</TestDate>
                  <Passed>1</Passed>
                  <Errors>0</Errors>
                  <Failures>0</Failures>
                  <Inconclusive>0</Inconclusive>
                  <NotRunnable>0</NotRunnable>
                  <Skipped>0</Skipped>
                  <Ignored>0</Ignored>
                  <Time />
                  <Message>Test successful

Execution time: 0.00ms</Message>
                  <ConsoleOutput />
                  <ConsoleError />
                </UnitTestResult>
              </Results>
              <Tests />
            </TestRecord>
            <TestRecord Name="TestPriorityPop">
              <Results>
                <UnitTestResult>
                  <TestDate>2015-02-07T16:52:33</TestDate>
                  <Passed>1</Passed>
                  <Errors>0</Errors>
                  <Failures>0</Failures>
                  <Inconclusive>0</Inconclusive>
                  <NotRunnable>0</NotRunnable>
                  <Skipped>0</Skipped>
                  <Ignored>0</Ignored>
                  <Time />
                  <Message>Test successful

Execution time: 0.00ms</Message>
                  <ConsoleOutput />
                  <ConsoleError />
                </UnitTestResult>
                <UnitTestResult>
                  <TestDate>2015-02-07T16:55:25</TestDate>
                  <Passed>1</Passed>
                  <Errors>0</Errors>
                  <Failures>0</Failures>
                  <Inconclusive>0</Inconclusive>
                  <NotRunnable>0</NotRunnable>
                  <Skipped>0</Skipped>
                  <Ignored>0</Ignored>
                  <Time />
                  <Message>Test successful

Execution time: 0.00ms</Message>
                  <ConsoleOutput />
                  <ConsoleError />
                </UnitTestResult>
                <UnitTestResult>
                  <TestDate>2015-02-07T17:05:20</TestDate>
                  <Passed>1</Passed>
                  <Errors>0</Errors>
                  <Failures>0</Failures>
                  <Inconclusive>0</Inconclusive>
                  <NotRunnable>0</NotRunnable>
                  <Skipped>0</Skipped>
                  <Ignored>0</Ignored>
                  <Time />
                  <Message>Test successful

Execution time: 0.00ms</Message>
                  <ConsoleOutput />
                  <ConsoleError />
                </UnitTestResult>
                <UnitTestResult>
                  <TestDate>2015-02-07T17:13:47</TestDate>
                  <Passed>1</Passed>
                  <Errors>0</Errors>
                  <Failures>0</Failures>
                  <Inconclusive>0</Inconclusive>
                  <NotRunnable>0</NotRunnable>
                  <Skipped>0</Skipped>
                  <Ignored>0</Ignored>
                  <Time />
                  <Message>Test successful

Execution time: 0.00ms</Message>
                  <ConsoleOutput />
                  <ConsoleError />
                </UnitTestResult>
                <UnitTestResult>
                  <TestDate>2015-02-07T17:17:31</TestDate>
                  <Passed>1</Passed>
                  <Errors>0</Errors>
                  <Failures>0</Failures>
                  <Inconclusive>0</Inconclusive>
                  <NotRunnable>0</NotRunnable>
                  <Skipped>0</Skipped>
                  <Ignored>0</Ignored>
                  <Time />
                  <Message>Test successful

Execution time: 0.00ms</Message>
                  <ConsoleOutput />
                  <ConsoleError />
                </UnitTestResult>
                <UnitTestResult>
                  <TestDate>2015-02-07T17:19:02</TestDate>
                  <Passed>1</Passed>
                  <Errors>0</Errors>
                  <Failures>0</Failures>
                  <Inconclusive>0</Inconclusive>
                  <NotRunnable>0</NotRunnable>
                  <Skipped>0</Skipped>
                  <Ignored>0</Ignored>
                  <Time />
                  <Message>Test successful

Execution time: 0.00ms</Message>
                  <ConsoleOutput />
                  <ConsoleError />
                </UnitTestResult>
              </Results>
              <Tests />
            </TestRecord>
            <TestRecord Name="TestUpHeap">
              <Results>
                <UnitTestResult>
                  <TestDate>2015-02-07T16:52:33</TestDate>
                  <Passed>1</Passed>
                  <Errors>0</Errors>
                  <Failures>0</Failures>
                  <Inconclusive>0</Inconclusive>
                  <NotRunnable>0</NotRunnable>
                  <Skipped>0</Skipped>
                  <Ignored>0</Ignored>
                  <Time />
                  <Message>Test successful

Execution time: 0.00ms</Message>
                  <ConsoleOutput />
                  <ConsoleError />
                </UnitTestResult>
                <UnitTestResult>
                  <TestDate>2015-02-07T16:55:25</TestDate>
                  <Passed>1</Passed>
                  <Errors>0</Errors>
                  <Failures>0</Failures>
                  <Inconclusive>0</Inconclusive>
                  <NotRunnable>0</NotRunnable>
                  <Skipped>0</Skipped>
                  <Ignored>0</Ignored>
                  <Time />
                  <Message>Test successful

Execution time: 0.00ms</Message>
                  <ConsoleOutput />
                  <ConsoleError />
                </UnitTestResult>
                <UnitTestResult>
                  <TestDate>2015-02-07T17:05:20</TestDate>
                  <Passed>1</Passed>
                  <Errors>0</Errors>
                  <Failures>0</Failures>
                  <Inconclusive>0</Inconclusive>
                  <NotRunnable>0</NotRunnable>
                  <Skipped>0</Skipped>
                  <Ignored>0</Ignored>
                  <Time />
                  <Message>Test successful

Execution time: 0.00ms</Message>
                  <ConsoleOutput />
                  <ConsoleError />
                </UnitTestResult>
                <UnitTestResult>
                  <TestDate>2015-02-07T17:13:47</TestDate>
                  <Passed>1</Passed>
                  <Errors>0</Errors>
                  <Failures>0</Failures>
                  <Inconclusive>0</Inconclusive>
                  <NotRunnable>0</NotRunnable>
                  <Skipped>0</Skipped>
                  <Ignored>0</Ignored>
                  <Time />
                  <Message>Test successful

Execution time: 0.00ms</Message>
                  <ConsoleOutput />
                  <ConsoleError />
                </UnitTestResult>
                <UnitTestResult>
                  <TestDate>2015-02-07T17:17:31</TestDate>
                  <Passed>1</Passed>
                  <Errors>0</Errors>
                  <Failures>0</Failures>
                  <Inconclusive>0</Inconclusive>
                  <NotRunnable>0</NotRunnable>
                  <Skipped>0</Skipped>
                  <Ignored>0</Ignored>
                  <Time />
                  <Message>Test successful

Execution time: 0.00ms</Message>
                  <ConsoleOutput />
                  <ConsoleError />
                </UnitTestResult>
                <UnitTestResult>
                  <TestDate>2015-02-07T17:19:02</TestDate>
                  <Passed>1</Passed>
                  <Errors>0</Errors>
                  <Failures>0</Failures>
                  <Inconclusive>0</Inconclusive>
                  <NotRunnable>0</NotRunnable>
                  <Skipped>0</Skipped>
                  <Ignored>0</Ignored>
                  <Time />
                  <Message>Test successful

Execution time: 0.00ms</Message>
                  <ConsoleOutput />
                  <ConsoleError />
                </UnitTestResult>
              </Results>
              <Tests />
            </TestRecord>
          </Tests>
        </TestRecord>
      </Tests>
    </TestRecord>
  </Tests>
</TestRecord>